* RegName			Page			Addr			Defval			Value
*--------------------------------------------------------------------------------
*  Periphery register map
*--------------------------------------------------------------------------------
Sync_SEUcnt_StripBlock9			0x0			0xfc8			0x0			0x0
Sync_SEUcnt_StripBlock8			0x0			0xfc0			0x0			0x0
Sync_SEUcnt_StripBlock3			0x0			0xf98			0x0			0x0

Sync_SEUcnt_StripBlock1			0x0			0xf88			0x0			0x0
Sync_SEUcnt_StripBlock0			0x0			0xf80			0x0			0x0
Sync_SEUcnt_StripBlock7			0x0			0xfb8			0x0			0x0
Sync_SEUcnt_StripBlock6			0x0			0xfb0			0x0			0x0
Sync_SEUcnt_StripBlock5			0x0			0xfa8			0x0			0x0
Sync_SEUcnt_StripBlock4			0x0			0xfa0			0x0			0x0
ADC_control			0x0			0x1039			0x0			0x0




Bias_D5DAC8			0x0			0x102C			0xf			0xf
Bias_D5DLLB			0x0			0x102B			0xf			0xf
Bias_D5TDR			0x0			0x1028			0xf			0xf
Bias_D5PREAMP			0x0			0x1027			0xf			0xf
Bias_D5BFEED			0x0			0x1026			0xf			0xf
Bias_D5ALLV			0x0			0x1029			0xf			0xf
Bias_D5ALLI			0x0			0x102A			0xf			0xf

Bias_THDAC			0x0			0x1020			0x23			0x3c
Bias_TEST_msb			0x0			0x1024			0x0			0x0
Bias_TEST_lsb			0x0			0x1023			0x0			0x0
Bias_THDACHIGH			0x0			0x1021			0x78			0x78
Bias_CALDAC			0x0			0x1022			0x32			0x46

bist_memory_sram_output_L_B			0x0			0x106B			0x0			0x0
LateralRX_sampling			0x0			0x1008			0xdd			0xff
mask_strip			0x0			0x0DFF			0x0			0x0
Fuse_Prog_b3			0x0			0x1038			0x0			0x0
Fuse_Prog_b2			0x0			0x1037			0x0			0x0
Fuse_Prog_b1			0x0			0x1036			0x0			0x0
Fuse_Prog_b0			0x0			0x1035			0x0			0x0
bist_memory_sram_mode			0x0			0x1019			0x0			0x0
output_inv_ctrl_S			0x0			0x101B			0x0			0x0
Async_SEUcnt_StripBlock8			0x0			0xec0			0x0			0x0

Config_HitDelay			0x0			0x101C			0x1			0x1

ADC_trimming			0x0			0x103A			0x20			0x20
bist_memory_sram_output_H_6			0x0			0x1066			0x0			0x0
Async_SEUcnt_StripBlock3			0x0			0xe98			0x0			0x0
Async_SEUcnt_StripBlock2			0x0			0xe90			0x0			0x0
Async_SEUcnt_StripBlock1			0x0			0xe88			0x0			0x0
Async_SEUcnt_StripBlock0			0x0			0xe80			0x0			0x0
Async_SEUcnt_StripBlock7			0x0			0xeb8			0x0			0x0
Async_SEUcnt_StripBlock6			0x0			0xeb0			0x0			0x0
Async_SEUcnt_StripBlock5			0x0			0xea8			0x0			0x0
Async_SEUcnt_StripBlock4			0x0			0xea0			0x0			0x0
Sync_SEUcnt_StripBlock11			0x0			0xfd8			0x0			0x0
bist_memory_sram_output_H_2			0x0			0x1062			0x0			0x0
Sync_SEUcnt_StripBlock14			0x0			0xff0			0x0			0x0
AsyncRead_StartDel_MSB			0x0			0x1007			0x3b			0x0
AsyncRead_StartDel_LSB			0x0			0x1006			0xf2			0x8
Fuse_Mode			0x0			0x1034			0x0			0x0
SLVS_pad_current_L1					0x0			0x1033			0x7			0x04
SLVS_pad_current_Lateral			0x0			0x102D			0xE4			0xE4
SLVS_pad_current_Stub_0_1			0x0			0x102E			0x0			0x77
SLVS_pad_current_Stub_2_3			0x0			0x102F			0x0			0x77
SLVS_pad_current_Stub_4_5			0x0			0x1030			0x0			0x77
SLVS_pad_current_Stub_6_7			0x0			0x1031			0x0			0x77
SLVS_pad_current_Clk_T1			0x0			0x1032			0x24			0x24
bist_memory_sram_start			0x0			0x101A			0x0			0x0
Sync_SEUcnt_StripBlock2			0x0			0xf90			0x0			0x0
Ring_oscillator_ctrl			0x0			0x1000			0x0			0x0
Sync_SEUcnt_StripBlock13			0x0			0xfe8			0x0			0x0
bist_output			0x0			0x1049			0x0			0x0
ClockDeskewing_coarse			0x0			0x1004			0x0			0x0
bist_memory_latch_ctrl			0x0			0x1018			0x64			0x64
control_3			0x0			0x1003			0xc3			0x28
control_2			0x0			0x1002			0x85			0x85
control_1			0x0			0x1001			0x18			0x18
Async_SEUcnt_StripBlock9			0x0			0xec8			0x0			0x0
Sync_SEUcnt_StripBlock12			0x0			0xfe0			0x0			0x0
Shift_pattern_st_6_st_7			0x0			0x100E			0x80			0x80

ClkTree_control			0x0			0x1016			0x57			0x57
status_reg			0x0			0x1040			0x0			0x0
Fuse_Value_b2			0x0			0x1047			0x0			0x0
Ring_oscillator_out_locTR_T1_H			0x0			0x1051			0x0			0x0
Ring_oscillator_out_locTR_T1_L			0x0			0x1050			0x0			0x0
Sync_SEUcnt_StripBlock10			0x0			0xfd0			0x0			0x0
CLuster_Overflow_Cnt_H			0x0			0x1042			0x0			0x0
CLuster_Overflow_Cnt_L			0x0			0x1041			0x0			0x0
Ring_oscillator_out_locBL_T1_H			0x0			0x1059			0x0			0x0
Ring_oscillator_out_locBL_T1_L			0x0			0x1058			0x0			0x0
ADC_IREF			0x0			0x103C			0x0			0x0
L1_FIFO_Overflow_Cnt_L			0x0			0x1043			0x0			0x0
L1_FIFO_Overflow_Cnt_H			0x0			0x1044			0x0			0x0
Ring_oscillator_out_locBR_T1_H			0x0			0x104D			0x0			0x0
Ring_oscillator_out_locBR_T1_L			0x0			0x104C			0x0			0x0
bist_memory_sram_output_L_C			0x0			0x106C			0x0			0x0
StripOffset_byte1			0x0			0x1013			0x0			0x0
StripOffset_byte0			0x0			0x1012			0x0			0x0
StripOffset_byte3			0x0			0x1015			0x0			0x0
StripOffset_byte2			0x0			0x1014			0x0			0x0
ClockDeskewing_fine			0x0			0x1005			0x91			0x90

bist_memory_sram_output_L_9			0x0			0x1069			0x0			0x0
Shift_pattern_Right			0x0			0x1010			0x80			0x80
Fuse_Value_b3			0x0			0x1048			0x0			0x0
Ring_oscillator_out_locBC_T1_L			0x0			0x1054			0x0			0x0
Fuse_Value_b1			0x0			0x1046			0x0			0x0
Fuse_Value_b0			0x0			0x1045			0x0			0x0
Ring_oscillator_out_locBC_T1_H			0x0			0x1055			0x0			0x0
bist_memory_sram_output_L_8			0x0			0x1068			0x0			0x0
Sync_SEUcnt_blk1			0x0			0x103F			0x0			0x0
bist_memory_sram_output_L_6			0x0			0x1066			0x0			0x0

Shift_pattern_st_4_st_5			0x0			0x100D			0x80			0x80
bist_memory_sram_output_L_1			0x0			0x1061			0x0			0x0
bist_memory_sram_output_L_0			0x0			0x1060			0x0			0x0
bist_memory_sram_output_L_3			0x0			0x1063			0x0			0x0
bist_memory_sram_output_L_2			0x0			0x1062			0x0			0x0
bist_memory_sram_output_L_5			0x0			0x1065			0x0			0x0
bist_memory_sram_output_L_4			0x0			0x1064			0x0			0x0
bist_memory_sram_output_L_7			0x0			0x1067			0x0			0x0

Shift_pattern_st_0			0x0			0x1009			0x80			0x80
Shift_pattern_st_1			0x0			0x100A			0x80			0x80
Shift_pattern_st_2			0x0			0x100B			0x80			0x80
Shift_pattern_st_3			0x0			0x100C			0x80			0x80

Ring_oscillator_out_locBR_T2_L			0x0			0x104E			0x0			0x0
mask_peri_A			0x0			0x103D			0x0			0x0
ADC_out_H			0x0			0x104B			0x0			0x0
Ring_oscillator_out_locBR_T2_H			0x0			0x104F			0x0			0x0
mask_peri_D			0x0			0x101D			0x0			0x0
Async_SEUcnt_blk0			0x0			0x101E			0x0			0x0
Async_SEUcnt_blk1			0x0			0x103E			0x0			0x0
Ring_oscillator_out_locBL_T2_L			0x0			0x105A			0x0			0x0
bist_memory_sram_output_H_9			0x0			0x1069			0x0			0x0
bist_memory_sram_output_H_8			0x0			0x1068			0x0			0x0
Ring_oscillator_out_locBL_T2_H			0x0			0x105B			0x0			0x0
bist_memory_sram_output_H_5			0x0			0x1065			0x0			0x0
bist_memory_sram_output_H_4			0x0			0x1064			0x0			0x0
bist_memory_sram_output_H_7			0x0			0x1067			0x0			0x0
Ring_oscillator_out_locTR_T2_L			0x0			0x1052			0x0			0x0
bist_memory_sram_output_H_1			0x0			0x1061			0x0			0x0
bist_memory_sram_output_H_0			0x0			0x1060			0x0			0x0
bist_memory_sram_output_H_3			0x0			0x1063			0x0			0x0
Ring_oscillator_out_locTR_T2_H			0x0			0x1053			0x0			0x0
Shift_pattern_Left			0x0			0x100F			0x80			0x80
bist_memory_sram_output_H_E			0x0			0x106E			0x0			0x0
bist_memory_sram_output_H_D			0x0			0x106D			0x0			0x0
bist_memory_sram_output_H_F			0x0			0x106F			0x0			0x0
bist_memory_sram_output_H_A			0x0			0x106A			0x0			0x0
bist_memory_sram_output_H_C			0x0			0x106C			0x0			0x0
bist_memory_sram_output_H_B			0x0			0x106B			0x0			0x0
ClkTreeMagicNumber			0x0			0x1017			0xaa			0xaa

Shift_pattern_L1			0x0			0x1011			0x80			0x80
bist_memory_sram_output_L_A			0x0			0x106A			0x0			0x0
Ring_oscillator_out_locBC_T2_H			0x0			0x1057			0x0			0x0
configuration_test			0x0			0x103C			0x0			0x0
bist_memory_sram_output_L_E			0x0			0x106E			0x0			0x0
bist_memory_sram_output_L_D			0x0			0x106D			0x0			0x0
Ring_oscillator_out_locBC_T2_L			0x0			0x1056			0x0			0x0
bist_memory_sram_output_L_F			0x0			0x106F			0x0			0x0
Sync_SEUcnt_blk0			0x0			0x101F			0x0			0x0
ADC_out_L			0x0			0x104A			0x0			0x0
ADC_VREF			0x0			0x103B			0x0F			0x0F
Delay_line			0x0			0x1025			0x0			0x0
Async_SEUcnt_StripBlock14			0x0			0xef0			0x0			0x0
Async_SEUcnt_StripBlock13			0x0			0xee8			0x0			0x0
Async_SEUcnt_StripBlock12			0x0			0xee0			0x0			0x0
Async_SEUcnt_StripBlock11			0x0			0xed8			0x0			0x0
Async_SEUcnt_StripBlock10			0x0			0xed0			0x0			0x0
*--------------------------------------------------------------------------------
*  Strip register map
*--------------------------------------------------------------------------------
ENFLAGS			            0x0			0x07f			0x5			0x1
StripControl2			    0x0			0x17f			0x1			0x1
THTRIMMING			        0x0			0x27f			0xf			0xf
DigCalibPattern_L			0x0			0x37f			0xff		0xff
DigCalibPattern_H			0x0			0x47f			0xff		0xff
AC_ReadCounterLSB			0x0			0x57f			0x0			0x0
AC_ReadCounterMSB			0x0			0x67f			0x0			0x0
*--------------------------------------------------------------------------------
*  Individual Strip register map
*--------------------------------------------------------------------------------
AC_ReadCounterLSB_S1			0x0			0x500			0x0			0x0
AC_ReadCounterLSB_S2			0x0			0x501			0x0			0x0
AC_ReadCounterLSB_S3			0x0			0x502			0x0			0x0
AC_ReadCounterLSB_S4			0x0			0x503			0x0			0x0
AC_ReadCounterLSB_S5			0x0			0x504			0x0			0x0
AC_ReadCounterLSB_S6			0x0			0x505			0x0			0x0
AC_ReadCounterLSB_S7			0x0			0x506			0x0			0x0
AC_ReadCounterLSB_S8			0x0			0x507			0x0			0x0
AC_ReadCounterLSB_S9			0x0			0x508			0x0			0x0
AC_ReadCounterLSB_S10			0x0			0x509			0x0			0x0
AC_ReadCounterLSB_S11			0x0			0x50a			0x0			0x0
AC_ReadCounterLSB_S12			0x0			0x50b			0x0			0x0
AC_ReadCounterLSB_S13			0x0			0x50c			0x0			0x0
AC_ReadCounterLSB_S14			0x0			0x50d			0x0			0x0
AC_ReadCounterLSB_S15			0x0			0x50e			0x0			0x0
AC_ReadCounterLSB_S16			0x0			0x50f			0x0			0x0
AC_ReadCounterLSB_S17			0x0			0x510			0x0			0x0
AC_ReadCounterLSB_S18			0x0			0x511			0x0			0x0
AC_ReadCounterLSB_S19			0x0			0x512			0x0			0x0
AC_ReadCounterLSB_S20			0x0			0x513			0x0			0x0
AC_ReadCounterLSB_S21			0x0			0x514			0x0			0x0
AC_ReadCounterLSB_S22			0x0			0x515			0x0			0x0
AC_ReadCounterLSB_S23			0x0			0x516			0x0			0x0
AC_ReadCounterLSB_S24			0x0			0x517			0x0			0x0
AC_ReadCounterLSB_S25			0x0			0x518			0x0			0x0
AC_ReadCounterLSB_S26			0x0			0x519			0x0			0x0
AC_ReadCounterLSB_S27			0x0			0x51a			0x0			0x0
AC_ReadCounterLSB_S28			0x0			0x51b			0x0			0x0
AC_ReadCounterLSB_S29			0x0			0x51c			0x0			0x0
AC_ReadCounterLSB_S30			0x0			0x51d			0x0			0x0
AC_ReadCounterLSB_S31			0x0			0x51e			0x0			0x0
AC_ReadCounterLSB_S32			0x0			0x51f			0x0			0x0
AC_ReadCounterLSB_S33			0x0			0x520			0x0			0x0
AC_ReadCounterLSB_S34			0x0			0x521			0x0			0x0
AC_ReadCounterLSB_S35			0x0			0x522			0x0			0x0
AC_ReadCounterLSB_S36			0x0			0x523			0x0			0x0
AC_ReadCounterLSB_S37			0x0			0x524			0x0			0x0
AC_ReadCounterLSB_S38			0x0			0x525			0x0			0x0
AC_ReadCounterLSB_S39			0x0			0x526			0x0			0x0
AC_ReadCounterLSB_S40			0x0			0x527			0x0			0x0
AC_ReadCounterLSB_S41			0x0			0x528			0x0			0x0
AC_ReadCounterLSB_S42			0x0			0x529			0x0			0x0
AC_ReadCounterLSB_S43			0x0			0x52a			0x0			0x0
AC_ReadCounterLSB_S44			0x0			0x52b			0x0			0x0
AC_ReadCounterLSB_S45			0x0			0x52c			0x0			0x0
AC_ReadCounterLSB_S46			0x0			0x52d			0x0			0x0
AC_ReadCounterLSB_S47			0x0			0x52e			0x0			0x0
AC_ReadCounterLSB_S48			0x0			0x52f			0x0			0x0
AC_ReadCounterLSB_S49			0x0			0x530			0x0			0x0
AC_ReadCounterLSB_S50			0x0			0x531			0x0			0x0
AC_ReadCounterLSB_S51			0x0			0x532			0x0			0x0
AC_ReadCounterLSB_S52			0x0			0x533			0x0			0x0
AC_ReadCounterLSB_S53			0x0			0x534			0x0			0x0
AC_ReadCounterLSB_S54			0x0			0x535			0x0			0x0
AC_ReadCounterLSB_S55			0x0			0x536			0x0			0x0
AC_ReadCounterLSB_S56			0x0			0x537			0x0			0x0
AC_ReadCounterLSB_S57			0x0			0x538			0x0			0x0
AC_ReadCounterLSB_S58			0x0			0x539			0x0			0x0
AC_ReadCounterLSB_S59			0x0			0x53a			0x0			0x0
AC_ReadCounterLSB_S60			0x0			0x53b			0x0			0x0
AC_ReadCounterLSB_S61			0x0			0x53c			0x0			0x0
AC_ReadCounterLSB_S62			0x0			0x53d			0x0			0x0
AC_ReadCounterLSB_S63			0x0			0x53e			0x0			0x0
AC_ReadCounterLSB_S64			0x0			0x53f			0x0			0x0
AC_ReadCounterLSB_S65			0x0			0x540			0x0			0x0
AC_ReadCounterLSB_S66			0x0			0x541			0x0			0x0
AC_ReadCounterLSB_S67			0x0			0x542			0x0			0x0
AC_ReadCounterLSB_S68			0x0			0x543			0x0			0x0
AC_ReadCounterLSB_S69			0x0			0x544			0x0			0x0
AC_ReadCounterLSB_S70			0x0			0x545			0x0			0x0
AC_ReadCounterLSB_S71			0x0			0x546			0x0			0x0
AC_ReadCounterLSB_S72			0x0			0x547			0x0			0x0
AC_ReadCounterLSB_S73			0x0			0x548			0x0			0x0
AC_ReadCounterLSB_S74			0x0			0x549			0x0			0x0
AC_ReadCounterLSB_S75			0x0			0x54a			0x0			0x0
AC_ReadCounterLSB_S76			0x0			0x54b			0x0			0x0
AC_ReadCounterLSB_S77			0x0			0x54c			0x0			0x0
AC_ReadCounterLSB_S78			0x0			0x54d			0x0			0x0
AC_ReadCounterLSB_S79			0x0			0x54e			0x0			0x0
AC_ReadCounterLSB_S80			0x0			0x54f			0x0			0x0
AC_ReadCounterLSB_S81			0x0			0x550			0x0			0x0
AC_ReadCounterLSB_S82			0x0			0x551			0x0			0x0
AC_ReadCounterLSB_S83			0x0			0x552			0x0			0x0
AC_ReadCounterLSB_S84			0x0			0x553			0x0			0x0
AC_ReadCounterLSB_S85			0x0			0x554			0x0			0x0
AC_ReadCounterLSB_S86			0x0			0x555			0x0			0x0
AC_ReadCounterLSB_S87			0x0			0x556			0x0			0x0
AC_ReadCounterLSB_S88			0x0			0x557			0x0			0x0
AC_ReadCounterLSB_S89			0x0			0x558			0x0			0x0
AC_ReadCounterLSB_S90			0x0			0x559			0x0			0x0
AC_ReadCounterLSB_S91			0x0			0x55a			0x0			0x0
AC_ReadCounterLSB_S92			0x0			0x55b			0x0			0x0
AC_ReadCounterLSB_S93			0x0			0x55c			0x0			0x0
AC_ReadCounterLSB_S94			0x0			0x55d			0x0			0x0
AC_ReadCounterLSB_S95			0x0			0x55e			0x0			0x0
AC_ReadCounterLSB_S96			0x0			0x55f			0x0			0x0
AC_ReadCounterLSB_S97			0x0			0x560			0x0			0x0
AC_ReadCounterLSB_S98			0x0			0x561			0x0			0x0
AC_ReadCounterLSB_S99			0x0			0x562			0x0			0x0
AC_ReadCounterLSB_S100			0x0			0x563			0x0			0x0
AC_ReadCounterLSB_S101			0x0			0x564			0x0			0x0
AC_ReadCounterLSB_S102			0x0			0x565			0x0			0x0
AC_ReadCounterLSB_S103			0x0			0x566			0x0			0x0
AC_ReadCounterLSB_S104			0x0			0x567			0x0			0x0
AC_ReadCounterLSB_S105			0x0			0x568			0x0			0x0
AC_ReadCounterLSB_S106			0x0			0x569			0x0			0x0
AC_ReadCounterLSB_S107			0x0			0x56a			0x0			0x0
AC_ReadCounterLSB_S108			0x0			0x56b			0x0			0x0
AC_ReadCounterLSB_S109			0x0			0x56c			0x0			0x0
AC_ReadCounterLSB_S110			0x0			0x56d			0x0			0x0
AC_ReadCounterLSB_S111			0x0			0x56e			0x0			0x0
AC_ReadCounterLSB_S112			0x0			0x56f			0x0			0x0
AC_ReadCounterLSB_S113			0x0			0x570			0x0			0x0
AC_ReadCounterLSB_S114			0x0			0x571			0x0			0x0
AC_ReadCounterLSB_S115			0x0			0x572			0x0			0x0
AC_ReadCounterLSB_S116			0x0			0x573			0x0			0x0
AC_ReadCounterLSB_S117			0x0			0x574			0x0			0x0
AC_ReadCounterLSB_S118			0x0			0x575			0x0			0x0
AC_ReadCounterLSB_S119			0x0			0x576			0x0			0x0
AC_ReadCounterLSB_S120			0x0			0x577			0x0			0x0
THTRIMMING_S1			0x0			0x200			0xf			0xf
THTRIMMING_S2			0x0			0x201			0xf			0xf
THTRIMMING_S3			0x0			0x202			0xf			0xf
THTRIMMING_S4			0x0			0x203			0xf			0xf
THTRIMMING_S5			0x0			0x204			0xf			0xf
THTRIMMING_S6			0x0			0x205			0xf			0xf
THTRIMMING_S7			0x0			0x206			0xf			0xf
THTRIMMING_S8			0x0			0x207			0xf			0xf
THTRIMMING_S9			0x0			0x208			0xf			0xf
THTRIMMING_S10			0x0			0x209			0xf			0xf
THTRIMMING_S11			0x0			0x20a			0xf			0xf
THTRIMMING_S12			0x0			0x20b			0xf			0xf
THTRIMMING_S13			0x0			0x20c			0xf			0xf
THTRIMMING_S14			0x0			0x20d			0xf			0xf
THTRIMMING_S15			0x0			0x20e			0xf			0xf
THTRIMMING_S16			0x0			0x20f			0xf			0xf
THTRIMMING_S17			0x0			0x210			0xf			0xf
THTRIMMING_S18			0x0			0x211			0xf			0xf
THTRIMMING_S19			0x0			0x212			0xf			0xf
THTRIMMING_S20			0x0			0x213			0xf			0xf
THTRIMMING_S21			0x0			0x214			0xf			0xf
THTRIMMING_S22			0x0			0x215			0xf			0xf
THTRIMMING_S23			0x0			0x216			0xf			0xf
THTRIMMING_S24			0x0			0x217			0xf			0xf
THTRIMMING_S25			0x0			0x218			0xf			0xf
THTRIMMING_S26			0x0			0x219			0xf			0xf
THTRIMMING_S27			0x0			0x21a			0xf			0xf
THTRIMMING_S28			0x0			0x21b			0xf			0xf
THTRIMMING_S29			0x0			0x21c			0xf			0xf
THTRIMMING_S30			0x0			0x21d			0xf			0xf
THTRIMMING_S31			0x0			0x21e			0xf			0xf
THTRIMMING_S32			0x0			0x21f			0xf			0xf
THTRIMMING_S33			0x0			0x220			0xf			0xf
THTRIMMING_S34			0x0			0x221			0xf			0xf
THTRIMMING_S35			0x0			0x222			0xf			0xf
THTRIMMING_S36			0x0			0x223			0xf			0xf
THTRIMMING_S37			0x0			0x224			0xf			0xf
THTRIMMING_S38			0x0			0x225			0xf			0xf
THTRIMMING_S39			0x0			0x226			0xf			0xf
THTRIMMING_S40			0x0			0x227			0xf			0xf
THTRIMMING_S41			0x0			0x228			0xf			0xf
THTRIMMING_S42			0x0			0x229			0xf			0xf
THTRIMMING_S43			0x0			0x22a			0xf			0xf
THTRIMMING_S44			0x0			0x22b			0xf			0xf
THTRIMMING_S45			0x0			0x22c			0xf			0xf
THTRIMMING_S46			0x0			0x22d			0xf			0xf
THTRIMMING_S47			0x0			0x22e			0xf			0xf
THTRIMMING_S48			0x0			0x22f			0xf			0xf
THTRIMMING_S49			0x0			0x230			0xf			0xf
THTRIMMING_S50			0x0			0x231			0xf			0xf
THTRIMMING_S51			0x0			0x232			0xf			0xf
THTRIMMING_S52			0x0			0x233			0xf			0xf
THTRIMMING_S53			0x0			0x234			0xf			0xf
THTRIMMING_S54			0x0			0x235			0xf			0xf
THTRIMMING_S55			0x0			0x236			0xf			0xf
THTRIMMING_S56			0x0			0x237			0xf			0xf
THTRIMMING_S57			0x0			0x238			0xf			0xf
THTRIMMING_S58			0x0			0x239			0xf			0xf
THTRIMMING_S59			0x0			0x23a			0xf			0xf
THTRIMMING_S60			0x0			0x23b			0xf			0xf
THTRIMMING_S61			0x0			0x23c			0xf			0xf
THTRIMMING_S62			0x0			0x23d			0xf			0xf
THTRIMMING_S63			0x0			0x23e			0xf			0xf
THTRIMMING_S64			0x0			0x23f			0xf			0xf
THTRIMMING_S65			0x0			0x240			0xf			0xf
THTRIMMING_S66			0x0			0x241			0xf			0xf
THTRIMMING_S67			0x0			0x242			0xf			0xf
THTRIMMING_S68			0x0			0x243			0xf			0xf
THTRIMMING_S69			0x0			0x244			0xf			0xf
THTRIMMING_S70			0x0			0x245			0xf			0xf
THTRIMMING_S71			0x0			0x246			0xf			0xf
THTRIMMING_S72			0x0			0x247			0xf			0xf
THTRIMMING_S73			0x0			0x248			0xf			0xf
THTRIMMING_S74			0x0			0x249			0xf			0xf
THTRIMMING_S75			0x0			0x24a			0xf			0xf
THTRIMMING_S76			0x0			0x24b			0xf			0xf
THTRIMMING_S77			0x0			0x24c			0xf			0xf
THTRIMMING_S78			0x0			0x24d			0xf			0xf
THTRIMMING_S79			0x0			0x24e			0xf			0xf
THTRIMMING_S80			0x0			0x24f			0xf			0xf
THTRIMMING_S81			0x0			0x250			0xf			0xf
THTRIMMING_S82			0x0			0x251			0xf			0xf
THTRIMMING_S83			0x0			0x252			0xf			0xf
THTRIMMING_S84			0x0			0x253			0xf			0xf
THTRIMMING_S85			0x0			0x254			0xf			0xf
THTRIMMING_S86			0x0			0x255			0xf			0xf
THTRIMMING_S87			0x0			0x256			0xf			0xf
THTRIMMING_S88			0x0			0x257			0xf			0xf
THTRIMMING_S89			0x0			0x258			0xf			0xf
THTRIMMING_S90			0x0			0x259			0xf			0xf
THTRIMMING_S91			0x0			0x25a			0xf			0xf
THTRIMMING_S92			0x0			0x25b			0xf			0xf
THTRIMMING_S93			0x0			0x25c			0xf			0xf
THTRIMMING_S94			0x0			0x25d			0xf			0xf
THTRIMMING_S95			0x0			0x25e			0xf			0xf
THTRIMMING_S96			0x0			0x25f			0xf			0xf
THTRIMMING_S97			0x0			0x260			0xf			0xf
THTRIMMING_S98			0x0			0x261			0xf			0xf
THTRIMMING_S99			0x0			0x262			0xf			0xf
THTRIMMING_S100			0x0			0x263			0xf			0xf
THTRIMMING_S101			0x0			0x264			0xf			0xf
THTRIMMING_S102			0x0			0x265			0xf			0xf
THTRIMMING_S103			0x0			0x266			0xf			0xf
THTRIMMING_S104			0x0			0x267			0xf			0xf
THTRIMMING_S105			0x0			0x268			0xf			0xf
THTRIMMING_S106			0x0			0x269			0xf			0xf
THTRIMMING_S107			0x0			0x26a			0xf			0xf
THTRIMMING_S108			0x0			0x26b			0xf			0xf
THTRIMMING_S109			0x0			0x26c			0xf			0xf
THTRIMMING_S110			0x0			0x26d			0xf			0xf
THTRIMMING_S111			0x0			0x26e			0xf			0xf
THTRIMMING_S112			0x0			0x26f			0xf			0xf
THTRIMMING_S113			0x0			0x270			0xf			0xf
THTRIMMING_S114			0x0			0x271			0xf			0xf
THTRIMMING_S115			0x0			0x272			0xf			0xf
THTRIMMING_S116			0x0			0x273			0xf			0xf
THTRIMMING_S117			0x0			0x274			0xf			0xf
THTRIMMING_S118			0x0			0x275			0xf			0xf
THTRIMMING_S119			0x0			0x276			0xf			0xf
THTRIMMING_S120			0x0			0x277			0xf			0xf
AC_ReadCounterMSB_S1			0x0			0x600			0x0			0x0
AC_ReadCounterMSB_S2			0x0			0x601			0x0			0x0
AC_ReadCounterMSB_S3			0x0			0x602			0x0			0x0
AC_ReadCounterMSB_S4			0x0			0x603			0x0			0x0
AC_ReadCounterMSB_S5			0x0			0x604			0x0			0x0
AC_ReadCounterMSB_S6			0x0			0x605			0x0			0x0
AC_ReadCounterMSB_S7			0x0			0x606			0x0			0x0
AC_ReadCounterMSB_S8			0x0			0x607			0x0			0x0
AC_ReadCounterMSB_S9			0x0			0x608			0x0			0x0
AC_ReadCounterMSB_S10			0x0			0x609			0x0			0x0
AC_ReadCounterMSB_S11			0x0			0x60a			0x0			0x0
AC_ReadCounterMSB_S12			0x0			0x60b			0x0			0x0
AC_ReadCounterMSB_S13			0x0			0x60c			0x0			0x0
AC_ReadCounterMSB_S14			0x0			0x60d			0x0			0x0
AC_ReadCounterMSB_S15			0x0			0x60e			0x0			0x0
AC_ReadCounterMSB_S16			0x0			0x60f			0x0			0x0
AC_ReadCounterMSB_S17			0x0			0x610			0x0			0x0
AC_ReadCounterMSB_S18			0x0			0x611			0x0			0x0
AC_ReadCounterMSB_S19			0x0			0x612			0x0			0x0
AC_ReadCounterMSB_S20			0x0			0x613			0x0			0x0
AC_ReadCounterMSB_S21			0x0			0x614			0x0			0x0
AC_ReadCounterMSB_S22			0x0			0x615			0x0			0x0
AC_ReadCounterMSB_S23			0x0			0x616			0x0			0x0
AC_ReadCounterMSB_S24			0x0			0x617			0x0			0x0
AC_ReadCounterMSB_S25			0x0			0x618			0x0			0x0
AC_ReadCounterMSB_S26			0x0			0x619			0x0			0x0
AC_ReadCounterMSB_S27			0x0			0x61a			0x0			0x0
AC_ReadCounterMSB_S28			0x0			0x61b			0x0			0x0
AC_ReadCounterMSB_S29			0x0			0x61c			0x0			0x0
AC_ReadCounterMSB_S30			0x0			0x61d			0x0			0x0
AC_ReadCounterMSB_S31			0x0			0x61e			0x0			0x0
AC_ReadCounterMSB_S32			0x0			0x61f			0x0			0x0
AC_ReadCounterMSB_S33			0x0			0x620			0x0			0x0
AC_ReadCounterMSB_S34			0x0			0x621			0x0			0x0
AC_ReadCounterMSB_S35			0x0			0x622			0x0			0x0
AC_ReadCounterMSB_S36			0x0			0x623			0x0			0x0
AC_ReadCounterMSB_S37			0x0			0x624			0x0			0x0
AC_ReadCounterMSB_S38			0x0			0x625			0x0			0x0
AC_ReadCounterMSB_S39			0x0			0x626			0x0			0x0
AC_ReadCounterMSB_S40			0x0			0x627			0x0			0x0
AC_ReadCounterMSB_S41			0x0			0x628			0x0			0x0
AC_ReadCounterMSB_S42			0x0			0x629			0x0			0x0
AC_ReadCounterMSB_S43			0x0			0x62a			0x0			0x0
AC_ReadCounterMSB_S44			0x0			0x62b			0x0			0x0
AC_ReadCounterMSB_S45			0x0			0x62c			0x0			0x0
AC_ReadCounterMSB_S46			0x0			0x62d			0x0			0x0
AC_ReadCounterMSB_S47			0x0			0x62e			0x0			0x0
AC_ReadCounterMSB_S48			0x0			0x62f			0x0			0x0
AC_ReadCounterMSB_S49			0x0			0x630			0x0			0x0
AC_ReadCounterMSB_S50			0x0			0x631			0x0			0x0
AC_ReadCounterMSB_S51			0x0			0x632			0x0			0x0
AC_ReadCounterMSB_S52			0x0			0x633			0x0			0x0
AC_ReadCounterMSB_S53			0x0			0x634			0x0			0x0
AC_ReadCounterMSB_S54			0x0			0x635			0x0			0x0
AC_ReadCounterMSB_S55			0x0			0x636			0x0			0x0
AC_ReadCounterMSB_S56			0x0			0x637			0x0			0x0
AC_ReadCounterMSB_S57			0x0			0x638			0x0			0x0
AC_ReadCounterMSB_S58			0x0			0x639			0x0			0x0
AC_ReadCounterMSB_S59			0x0			0x63a			0x0			0x0
AC_ReadCounterMSB_S60			0x0			0x63b			0x0			0x0
AC_ReadCounterMSB_S61			0x0			0x63c			0x0			0x0
AC_ReadCounterMSB_S62			0x0			0x63d			0x0			0x0
AC_ReadCounterMSB_S63			0x0			0x63e			0x0			0x0
AC_ReadCounterMSB_S64			0x0			0x63f			0x0			0x0
AC_ReadCounterMSB_S65			0x0			0x640			0x0			0x0
AC_ReadCounterMSB_S66			0x0			0x641			0x0			0x0
AC_ReadCounterMSB_S67			0x0			0x642			0x0			0x0
AC_ReadCounterMSB_S68			0x0			0x643			0x0			0x0
AC_ReadCounterMSB_S69			0x0			0x644			0x0			0x0
AC_ReadCounterMSB_S70			0x0			0x645			0x0			0x0
AC_ReadCounterMSB_S71			0x0			0x646			0x0			0x0
AC_ReadCounterMSB_S72			0x0			0x647			0x0			0x0
AC_ReadCounterMSB_S73			0x0			0x648			0x0			0x0
AC_ReadCounterMSB_S74			0x0			0x649			0x0			0x0
AC_ReadCounterMSB_S75			0x0			0x64a			0x0			0x0
AC_ReadCounterMSB_S76			0x0			0x64b			0x0			0x0
AC_ReadCounterMSB_S77			0x0			0x64c			0x0			0x0
AC_ReadCounterMSB_S78			0x0			0x64d			0x0			0x0
AC_ReadCounterMSB_S79			0x0			0x64e			0x0			0x0
AC_ReadCounterMSB_S80			0x0			0x64f			0x0			0x0
AC_ReadCounterMSB_S81			0x0			0x650			0x0			0x0
AC_ReadCounterMSB_S82			0x0			0x651			0x0			0x0
AC_ReadCounterMSB_S83			0x0			0x652			0x0			0x0
AC_ReadCounterMSB_S84			0x0			0x653			0x0			0x0
AC_ReadCounterMSB_S85			0x0			0x654			0x0			0x0
AC_ReadCounterMSB_S86			0x0			0x655			0x0			0x0
AC_ReadCounterMSB_S87			0x0			0x656			0x0			0x0
AC_ReadCounterMSB_S88			0x0			0x657			0x0			0x0
AC_ReadCounterMSB_S89			0x0			0x658			0x0			0x0
AC_ReadCounterMSB_S90			0x0			0x659			0x0			0x0
AC_ReadCounterMSB_S91			0x0			0x65a			0x0			0x0
AC_ReadCounterMSB_S92			0x0			0x65b			0x0			0x0
AC_ReadCounterMSB_S93			0x0			0x65c			0x0			0x0
AC_ReadCounterMSB_S94			0x0			0x65d			0x0			0x0
AC_ReadCounterMSB_S95			0x0			0x65e			0x0			0x0
AC_ReadCounterMSB_S96			0x0			0x65f			0x0			0x0
AC_ReadCounterMSB_S97			0x0			0x660			0x0			0x0
AC_ReadCounterMSB_S98			0x0			0x661			0x0			0x0
AC_ReadCounterMSB_S99			0x0			0x662			0x0			0x0
AC_ReadCounterMSB_S100			0x0			0x663			0x0			0x0
AC_ReadCounterMSB_S101			0x0			0x664			0x0			0x0
AC_ReadCounterMSB_S102			0x0			0x665			0x0			0x0
AC_ReadCounterMSB_S103			0x0			0x666			0x0			0x0
AC_ReadCounterMSB_S104			0x0			0x667			0x0			0x0
AC_ReadCounterMSB_S105			0x0			0x668			0x0			0x0
AC_ReadCounterMSB_S106			0x0			0x669			0x0			0x0
AC_ReadCounterMSB_S107			0x0			0x66a			0x0			0x0
AC_ReadCounterMSB_S108			0x0			0x66b			0x0			0x0
AC_ReadCounterMSB_S109			0x0			0x66c			0x0			0x0
AC_ReadCounterMSB_S110			0x0			0x66d			0x0			0x0
AC_ReadCounterMSB_S111			0x0			0x66e			0x0			0x0
AC_ReadCounterMSB_S112			0x0			0x66f			0x0			0x0
AC_ReadCounterMSB_S113			0x0			0x670			0x0			0x0
AC_ReadCounterMSB_S114			0x0			0x671			0x0			0x0
AC_ReadCounterMSB_S115			0x0			0x672			0x0			0x0
AC_ReadCounterMSB_S116			0x0			0x673			0x0			0x0
AC_ReadCounterMSB_S117			0x0			0x674			0x0			0x0
AC_ReadCounterMSB_S118			0x0			0x675			0x0			0x0
AC_ReadCounterMSB_S119			0x0			0x676			0x0			0x0
AC_ReadCounterMSB_S120			0x0			0x677			0x0			0x0
StripControl2_S1			0x0			0x100			0x1			0x1
StripControl2_S2			0x0			0x101			0x1			0x1
StripControl2_S3			0x0			0x102			0x1			0x1
StripControl2_S4			0x0			0x103			0x1			0x1
StripControl2_S5			0x0			0x104			0x1			0x1
StripControl2_S6			0x0			0x105			0x1			0x1
StripControl2_S7			0x0			0x106			0x1			0x1
StripControl2_S8			0x0			0x107			0x1			0x1
StripControl2_S9			0x0			0x108			0x1			0x1
StripControl2_S10			0x0			0x109			0x1			0x1
StripControl2_S11			0x0			0x10a			0x1			0x1
StripControl2_S12			0x0			0x10b			0x1			0x1
StripControl2_S13			0x0			0x10c			0x1			0x1
StripControl2_S14			0x0			0x10d			0x1			0x1
StripControl2_S15			0x0			0x10e			0x1			0x1
StripControl2_S16			0x0			0x10f			0x1			0x1
StripControl2_S17			0x0			0x110			0x1			0x1
StripControl2_S18			0x0			0x111			0x1			0x1
StripControl2_S19			0x0			0x112			0x1			0x1
StripControl2_S20			0x0			0x113			0x1			0x1
StripControl2_S21			0x0			0x114			0x1			0x1
StripControl2_S22			0x0			0x115			0x1			0x1
StripControl2_S23			0x0			0x116			0x1			0x1
StripControl2_S24			0x0			0x117			0x1			0x1
StripControl2_S25			0x0			0x118			0x1			0x1
StripControl2_S26			0x0			0x119			0x1			0x1
StripControl2_S27			0x0			0x11a			0x1			0x1
StripControl2_S28			0x0			0x11b			0x1			0x1
StripControl2_S29			0x0			0x11c			0x1			0x1
StripControl2_S30			0x0			0x11d			0x1			0x1
StripControl2_S31			0x0			0x11e			0x1			0x1
StripControl2_S32			0x0			0x11f			0x1			0x1
StripControl2_S33			0x0			0x120			0x1			0x1
StripControl2_S34			0x0			0x121			0x1			0x1
StripControl2_S35			0x0			0x122			0x1			0x1
StripControl2_S36			0x0			0x123			0x1			0x1
StripControl2_S37			0x0			0x124			0x1			0x1
StripControl2_S38			0x0			0x125			0x1			0x1
StripControl2_S39			0x0			0x126			0x1			0x1
StripControl2_S40			0x0			0x127			0x1			0x1
StripControl2_S41			0x0			0x128			0x1			0x1
StripControl2_S42			0x0			0x129			0x1			0x1
StripControl2_S43			0x0			0x12a			0x1			0x1
StripControl2_S44			0x0			0x12b			0x1			0x1
StripControl2_S45			0x0			0x12c			0x1			0x1
StripControl2_S46			0x0			0x12d			0x1			0x1
StripControl2_S47			0x0			0x12e			0x1			0x1
StripControl2_S48			0x0			0x12f			0x1			0x1
StripControl2_S49			0x0			0x130			0x1			0x1
StripControl2_S50			0x0			0x131			0x1			0x1
StripControl2_S51			0x0			0x132			0x1			0x1
StripControl2_S52			0x0			0x133			0x1			0x1
StripControl2_S53			0x0			0x134			0x1			0x1
StripControl2_S54			0x0			0x135			0x1			0x1
StripControl2_S55			0x0			0x136			0x1			0x1
StripControl2_S56			0x0			0x137			0x1			0x1
StripControl2_S57			0x0			0x138			0x1			0x1
StripControl2_S58			0x0			0x139			0x1			0x1
StripControl2_S59			0x0			0x13a			0x1			0x1
StripControl2_S60			0x0			0x13b			0x1			0x1
StripControl2_S61			0x0			0x13c			0x1			0x1
StripControl2_S62			0x0			0x13d			0x1			0x1
StripControl2_S63			0x0			0x13e			0x1			0x1
StripControl2_S64			0x0			0x13f			0x1			0x1
StripControl2_S65			0x0			0x140			0x1			0x1
StripControl2_S66			0x0			0x141			0x1			0x1
StripControl2_S67			0x0			0x142			0x1			0x1
StripControl2_S68			0x0			0x143			0x1			0x1
StripControl2_S69			0x0			0x144			0x1			0x1
StripControl2_S70			0x0			0x145			0x1			0x1
StripControl2_S71			0x0			0x146			0x1			0x1
StripControl2_S72			0x0			0x147			0x1			0x1
StripControl2_S73			0x0			0x148			0x1			0x1
StripControl2_S74			0x0			0x149			0x1			0x1
StripControl2_S75			0x0			0x14a			0x1			0x1
StripControl2_S76			0x0			0x14b			0x1			0x1
StripControl2_S77			0x0			0x14c			0x1			0x1
StripControl2_S78			0x0			0x14d			0x1			0x1
StripControl2_S79			0x0			0x14e			0x1			0x1
StripControl2_S80			0x0			0x14f			0x1			0x1
StripControl2_S81			0x0			0x150			0x1			0x1
StripControl2_S82			0x0			0x151			0x1			0x1
StripControl2_S83			0x0			0x152			0x1			0x1
StripControl2_S84			0x0			0x153			0x1			0x1
StripControl2_S85			0x0			0x154			0x1			0x1
StripControl2_S86			0x0			0x155			0x1			0x1
StripControl2_S87			0x0			0x156			0x1			0x1
StripControl2_S88			0x0			0x157			0x1			0x1
StripControl2_S89			0x0			0x158			0x1			0x1
StripControl2_S90			0x0			0x159			0x1			0x1
StripControl2_S91			0x0			0x15a			0x1			0x1
StripControl2_S92			0x0			0x15b			0x1			0x1
StripControl2_S93			0x0			0x15c			0x1			0x1
StripControl2_S94			0x0			0x15d			0x1			0x1
StripControl2_S95			0x0			0x15e			0x1			0x1
StripControl2_S96			0x0			0x15f			0x1			0x1
StripControl2_S97			0x0			0x160			0x1			0x1
StripControl2_S98			0x0			0x161			0x1			0x1
StripControl2_S99			0x0			0x162			0x1			0x1
StripControl2_S100			0x0			0x163			0x1			0x1
StripControl2_S101			0x0			0x164			0x1			0x1
StripControl2_S102			0x0			0x165			0x1			0x1
StripControl2_S103			0x0			0x166			0x1			0x1
StripControl2_S104			0x0			0x167			0x1			0x1
StripControl2_S105			0x0			0x168			0x1			0x1
StripControl2_S106			0x0			0x169			0x1			0x1
StripControl2_S107			0x0			0x16a			0x1			0x1
StripControl2_S108			0x0			0x16b			0x1			0x1
StripControl2_S109			0x0			0x16c			0x1			0x1
StripControl2_S110			0x0			0x16d			0x1			0x1
StripControl2_S111			0x0			0x16e			0x1			0x1
StripControl2_S112			0x0			0x16f			0x1			0x1
StripControl2_S113			0x0			0x170			0x1			0x1
StripControl2_S114			0x0			0x171			0x1			0x1
StripControl2_S115			0x0			0x172			0x1			0x1
StripControl2_S116			0x0			0x173			0x1			0x1
StripControl2_S117			0x0			0x174			0x1			0x1
StripControl2_S118			0x0			0x175			0x1			0x1
StripControl2_S119			0x0			0x176			0x1			0x1
StripControl2_S120			0x0			0x177			0x1			0x1
ENFLAGS_S1			0x0			0x000			0x1			0x1
ENFLAGS_S2			0x0			0x001			0x1			0x1
ENFLAGS_S3			0x0			0x002			0x1			0x1
ENFLAGS_S4			0x0			0x003			0x1			0x1
ENFLAGS_S5			0x0			0x004			0x1			0x1
ENFLAGS_S6			0x0			0x005			0x1			0x1
ENFLAGS_S7			0x0			0x006			0x1			0x1
ENFLAGS_S8			0x0			0x007			0x1			0x1
ENFLAGS_S9			0x0			0x008			0x1			0x1
ENFLAGS_S10			0x0			0x009			0x1			0x1
ENFLAGS_S11			0x0			0x00a			0x1			0x1
ENFLAGS_S12			0x0			0x00b			0x1			0x1
ENFLAGS_S13			0x0			0x00c			0x1			0x1
ENFLAGS_S14			0x0			0x00d			0x1			0x1
ENFLAGS_S15			0x0			0x00e			0x1			0x1
ENFLAGS_S16			0x0			0x00f			0x1			0x1
ENFLAGS_S17			0x0			0x010			0x1			0x1
ENFLAGS_S18			0x0			0x011			0x1			0x1
ENFLAGS_S19			0x0			0x012			0x1			0x1
ENFLAGS_S20			0x0			0x013			0x1			0x1
ENFLAGS_S21			0x0			0x014			0x1			0x1
ENFLAGS_S22			0x0			0x015			0x1			0x1
ENFLAGS_S23			0x0			0x016			0x1			0x1
ENFLAGS_S24			0x0			0x017			0x1			0x1
ENFLAGS_S25			0x0			0x018			0x1			0x1
ENFLAGS_S26			0x0			0x019			0x1			0x1
ENFLAGS_S27			0x0			0x01a			0x1			0x1
ENFLAGS_S28			0x0			0x01b			0x1			0x1
ENFLAGS_S29			0x0			0x01c			0x1			0x1
ENFLAGS_S30			0x0			0x01d			0x1			0x1
ENFLAGS_S31			0x0			0x01e			0x1			0x1
ENFLAGS_S32			0x0			0x01f			0x1			0x1
ENFLAGS_S33			0x0			0x020			0x1			0x1
ENFLAGS_S34			0x0			0x021			0x1			0x1
ENFLAGS_S35			0x0			0x022			0x1			0x1
ENFLAGS_S36			0x0			0x023			0x1			0x1
ENFLAGS_S37			0x0			0x024			0x1			0x1
ENFLAGS_S38			0x0			0x025			0x1			0x1
ENFLAGS_S39			0x0			0x026			0x1			0x1
ENFLAGS_S40			0x0			0x027			0x1			0x1
ENFLAGS_S41			0x0			0x028			0x1			0x1
ENFLAGS_S42			0x0			0x029			0x1			0x1
ENFLAGS_S43			0x0			0x02a			0x1			0x1
ENFLAGS_S44			0x0			0x02b			0x1			0x1
ENFLAGS_S45			0x0			0x02c			0x1			0x1
ENFLAGS_S46			0x0			0x02d			0x1			0x1
ENFLAGS_S47			0x0			0x02e			0x1			0x1
ENFLAGS_S48			0x0			0x02f			0x1			0x1
ENFLAGS_S49			0x0			0x030			0x1			0x1
ENFLAGS_S50			0x0			0x031			0x1			0x1
ENFLAGS_S51			0x0			0x032			0x1			0x1
ENFLAGS_S52			0x0			0x033			0x1			0x1
ENFLAGS_S53			0x0			0x034			0x1			0x1
ENFLAGS_S54			0x0			0x035			0x1			0x1
ENFLAGS_S55			0x0			0x036			0x1			0x1
ENFLAGS_S56			0x0			0x037			0x1			0x1
ENFLAGS_S57			0x0			0x038			0x1			0x1
ENFLAGS_S58			0x0			0x039			0x1			0x1
ENFLAGS_S59			0x0			0x03a			0x1			0x1
ENFLAGS_S60			0x0			0x03b			0x1			0x1
ENFLAGS_S61			0x0			0x03c			0x1			0x1
ENFLAGS_S62			0x0			0x03d			0x1			0x1
ENFLAGS_S63			0x0			0x03e			0x1			0x1
ENFLAGS_S64			0x0			0x03f			0x1			0x1
ENFLAGS_S65			0x0			0x040			0x1			0x1
ENFLAGS_S66			0x0			0x041			0x1			0x1
ENFLAGS_S67			0x0			0x042			0x1			0x1
ENFLAGS_S68			0x0			0x043			0x1			0x1
ENFLAGS_S69			0x0			0x044			0x1			0x1
ENFLAGS_S70			0x0			0x045			0x1			0x1
ENFLAGS_S71			0x0			0x046			0x1			0x1
ENFLAGS_S72			0x0			0x047			0x1			0x1
ENFLAGS_S73			0x0			0x048			0x1			0x1
ENFLAGS_S74			0x0			0x049			0x1			0x1
ENFLAGS_S75			0x0			0x04a			0x1			0x1
ENFLAGS_S76			0x0			0x04b			0x1			0x1
ENFLAGS_S77			0x0			0x04c			0x1			0x1
ENFLAGS_S78			0x0			0x04d			0x1			0x1
ENFLAGS_S79			0x0			0x04e			0x1			0x1
ENFLAGS_S80			0x0			0x04f			0x1			0x1
ENFLAGS_S81			0x0			0x050			0x1			0x1
ENFLAGS_S82			0x0			0x051			0x1			0x1
ENFLAGS_S83			0x0			0x052			0x1			0x1
ENFLAGS_S84			0x0			0x053			0x1			0x1
ENFLAGS_S85			0x0			0x054			0x1			0x1
ENFLAGS_S86			0x0			0x055			0x1			0x1
ENFLAGS_S87			0x0			0x056			0x1			0x1
ENFLAGS_S88			0x0			0x057			0x1			0x1
ENFLAGS_S89			0x0			0x058			0x1			0x1
ENFLAGS_S90			0x0			0x059			0x1			0x1
ENFLAGS_S91			0x0			0x05a			0x1			0x1
ENFLAGS_S92			0x0			0x05b			0x1			0x1
ENFLAGS_S93			0x0			0x05c			0x1			0x1
ENFLAGS_S94			0x0			0x05d			0x1			0x1
ENFLAGS_S95			0x0			0x05e			0x1			0x1
ENFLAGS_S96			0x0			0x05f			0x1			0x1
ENFLAGS_S97			0x0			0x060			0x1			0x1
ENFLAGS_S98			0x0			0x061			0x1			0x1
ENFLAGS_S99			0x0			0x062			0x1			0x1
ENFLAGS_S100			0x0			0x063			0x1			0x1
ENFLAGS_S101			0x0			0x064			0x1			0x1
ENFLAGS_S102			0x0			0x065			0x1			0x1
ENFLAGS_S103			0x0			0x066			0x1			0x1
ENFLAGS_S104			0x0			0x067			0x1			0x1
ENFLAGS_S105			0x0			0x068			0x1			0x1
ENFLAGS_S106			0x0			0x069			0x1			0x1
ENFLAGS_S107			0x0			0x06a			0x1			0x1
ENFLAGS_S108			0x0			0x06b			0x1			0x1
ENFLAGS_S109			0x0			0x06c			0x1			0x1
ENFLAGS_S110			0x0			0x06d			0x1			0x1
ENFLAGS_S111			0x0			0x06e			0x1			0x1
ENFLAGS_S112			0x0			0x06f			0x1			0x1
ENFLAGS_S113			0x0			0x070			0x1			0x1
ENFLAGS_S114			0x0			0x071			0x1			0x1
ENFLAGS_S115			0x0			0x072			0x1			0x1
ENFLAGS_S116			0x0			0x073			0x1			0x1
ENFLAGS_S117			0x0			0x074			0x1			0x1
ENFLAGS_S118			0x0			0x075			0x1			0x1
ENFLAGS_S119			0x0			0x076			0x1			0x1
ENFLAGS_S120			0x0			0x077			0x1			0x1
DigCalibPattern_H_S1			0x0			0x400			0xff			0xff
DigCalibPattern_H_S2			0x0			0x401			0xff			0xff
DigCalibPattern_H_S3			0x0			0x402			0xff			0xff
DigCalibPattern_H_S4			0x0			0x403			0xff			0xff
DigCalibPattern_H_S5			0x0			0x404			0xff			0xff
DigCalibPattern_H_S6			0x0			0x405			0xff			0xff
DigCalibPattern_H_S7			0x0			0x406			0xff			0xff
DigCalibPattern_H_S8			0x0			0x407			0xff			0xff
DigCalibPattern_H_S9			0x0			0x408			0xff			0xff
DigCalibPattern_H_S10			0x0			0x409			0xff			0xff
DigCalibPattern_H_S11			0x0			0x40a			0xff			0xff
DigCalibPattern_H_S12			0x0			0x40b			0xff			0xff
DigCalibPattern_H_S13			0x0			0x40c			0xff			0xff
DigCalibPattern_H_S14			0x0			0x40d			0xff			0xff
DigCalibPattern_H_S15			0x0			0x40e			0xff			0xff
DigCalibPattern_H_S16			0x0			0x40f			0xff			0xff
DigCalibPattern_H_S17			0x0			0x410			0xff			0xff
DigCalibPattern_H_S18			0x0			0x411			0xff			0xff
DigCalibPattern_H_S19			0x0			0x412			0xff			0xff
DigCalibPattern_H_S20			0x0			0x413			0xff			0xff
DigCalibPattern_H_S21			0x0			0x414			0xff			0xff
DigCalibPattern_H_S22			0x0			0x415			0xff			0xff
DigCalibPattern_H_S23			0x0			0x416			0xff			0xff
DigCalibPattern_H_S24			0x0			0x417			0xff			0xff
DigCalibPattern_H_S25			0x0			0x418			0xff			0xff
DigCalibPattern_H_S26			0x0			0x419			0xff			0xff
DigCalibPattern_H_S27			0x0			0x41a			0xff			0xff
DigCalibPattern_H_S28			0x0			0x41b			0xff			0xff
DigCalibPattern_H_S29			0x0			0x41c			0xff			0xff
DigCalibPattern_H_S30			0x0			0x41d			0xff			0xff
DigCalibPattern_H_S31			0x0			0x41e			0xff			0xff
DigCalibPattern_H_S32			0x0			0x41f			0xff			0xff
DigCalibPattern_H_S33			0x0			0x420			0xff			0xff
DigCalibPattern_H_S34			0x0			0x421			0xff			0xff
DigCalibPattern_H_S35			0x0			0x422			0xff			0xff
DigCalibPattern_H_S36			0x0			0x423			0xff			0xff
DigCalibPattern_H_S37			0x0			0x424			0xff			0xff
DigCalibPattern_H_S38			0x0			0x425			0xff			0xff
DigCalibPattern_H_S39			0x0			0x426			0xff			0xff
DigCalibPattern_H_S40			0x0			0x427			0xff			0xff
DigCalibPattern_H_S41			0x0			0x428			0xff			0xff
DigCalibPattern_H_S42			0x0			0x429			0xff			0xff
DigCalibPattern_H_S43			0x0			0x42a			0xff			0xff
DigCalibPattern_H_S44			0x0			0x42b			0xff			0xff
DigCalibPattern_H_S45			0x0			0x42c			0xff			0xff
DigCalibPattern_H_S46			0x0			0x42d			0xff			0xff
DigCalibPattern_H_S47			0x0			0x42e			0xff			0xff
DigCalibPattern_H_S48			0x0			0x42f			0xff			0xff
DigCalibPattern_H_S49			0x0			0x430			0xff			0xff
DigCalibPattern_H_S50			0x0			0x431			0xff			0xff
DigCalibPattern_H_S51			0x0			0x432			0xff			0xff
DigCalibPattern_H_S52			0x0			0x433			0xff			0xff
DigCalibPattern_H_S53			0x0			0x434			0xff			0xff
DigCalibPattern_H_S54			0x0			0x435			0xff			0xff
DigCalibPattern_H_S55			0x0			0x436			0xff			0xff
DigCalibPattern_H_S56			0x0			0x437			0xff			0xff
DigCalibPattern_H_S57			0x0			0x438			0xff			0xff
DigCalibPattern_H_S58			0x0			0x439			0xff			0xff
DigCalibPattern_H_S59			0x0			0x43a			0xff			0xff
DigCalibPattern_H_S60			0x0			0x43b			0xff			0xff
DigCalibPattern_H_S61			0x0			0x43c			0xff			0xff
DigCalibPattern_H_S62			0x0			0x43d			0xff			0xff
DigCalibPattern_H_S63			0x0			0x43e			0xff			0xff
DigCalibPattern_H_S64			0x0			0x43f			0xff			0xff
DigCalibPattern_H_S65			0x0			0x440			0xff			0xff
DigCalibPattern_H_S66			0x0			0x441			0xff			0xff
DigCalibPattern_H_S67			0x0			0x442			0xff			0xff
DigCalibPattern_H_S68			0x0			0x443			0xff			0xff
DigCalibPattern_H_S69			0x0			0x444			0xff			0xff
DigCalibPattern_H_S70			0x0			0x445			0xff			0xff
DigCalibPattern_H_S71			0x0			0x446			0xff			0xff
DigCalibPattern_H_S72			0x0			0x447			0xff			0xff
DigCalibPattern_H_S73			0x0			0x448			0xff			0xff
DigCalibPattern_H_S74			0x0			0x449			0xff			0xff
DigCalibPattern_H_S75			0x0			0x44a			0xff			0xff
DigCalibPattern_H_S76			0x0			0x44b			0xff			0xff
DigCalibPattern_H_S77			0x0			0x44c			0xff			0xff
DigCalibPattern_H_S78			0x0			0x44d			0xff			0xff
DigCalibPattern_H_S79			0x0			0x44e			0xff			0xff
DigCalibPattern_H_S80			0x0			0x44f			0xff			0xff
DigCalibPattern_H_S81			0x0			0x450			0xff			0xff
DigCalibPattern_H_S82			0x0			0x451			0xff			0xff
DigCalibPattern_H_S83			0x0			0x452			0xff			0xff
DigCalibPattern_H_S84			0x0			0x453			0xff			0xff
DigCalibPattern_H_S85			0x0			0x454			0xff			0xff
DigCalibPattern_H_S86			0x0			0x455			0xff			0xff
DigCalibPattern_H_S87			0x0			0x456			0xff			0xff
DigCalibPattern_H_S88			0x0			0x457			0xff			0xff
DigCalibPattern_H_S89			0x0			0x458			0xff			0xff
DigCalibPattern_H_S90			0x0			0x459			0xff			0xff
DigCalibPattern_H_S91			0x0			0x45a			0xff			0xff
DigCalibPattern_H_S92			0x0			0x45b			0xff			0xff
DigCalibPattern_H_S93			0x0			0x45c			0xff			0xff
DigCalibPattern_H_S94			0x0			0x45d			0xff			0xff
DigCalibPattern_H_S95			0x0			0x45e			0xff			0xff
DigCalibPattern_H_S96			0x0			0x45f			0xff			0xff
DigCalibPattern_H_S97			0x0			0x460			0xff			0xff
DigCalibPattern_H_S98			0x0			0x461			0xff			0xff
DigCalibPattern_H_S99			0x0			0x462			0xff			0xff
DigCalibPattern_H_S100			0x0			0x463			0xff			0xff
DigCalibPattern_H_S101			0x0			0x464			0xff			0xff
DigCalibPattern_H_S102			0x0			0x465			0xff			0xff
DigCalibPattern_H_S103			0x0			0x466			0xff			0xff
DigCalibPattern_H_S104			0x0			0x467			0xff			0xff
DigCalibPattern_H_S105			0x0			0x468			0xff			0xff
DigCalibPattern_H_S106			0x0			0x469			0xff			0xff
DigCalibPattern_H_S107			0x0			0x46a			0xff			0xff
DigCalibPattern_H_S108			0x0			0x46b			0xff			0xff
DigCalibPattern_H_S109			0x0			0x46c			0xff			0xff
DigCalibPattern_H_S110			0x0			0x46d			0xff			0xff
DigCalibPattern_H_S111			0x0			0x46e			0xff			0xff
DigCalibPattern_H_S112			0x0			0x46f			0xff			0xff
DigCalibPattern_H_S113			0x0			0x470			0xff			0xff
DigCalibPattern_H_S114			0x0			0x471			0xff			0xff
DigCalibPattern_H_S115			0x0			0x472			0xff			0xff
DigCalibPattern_H_S116			0x0			0x473			0xff			0xff
DigCalibPattern_H_S117			0x0			0x474			0xff			0xff
DigCalibPattern_H_S118			0x0			0x475			0xff			0xff
DigCalibPattern_H_S119			0x0			0x476			0xff			0xff
DigCalibPattern_H_S120			0x0			0x477			0xff			0xff
DigCalibPattern_L_S1			0x0			0x300			0xff			0xff
DigCalibPattern_L_S2			0x0			0x301			0xff			0xff
DigCalibPattern_L_S3			0x0			0x302			0xff			0xff
DigCalibPattern_L_S4			0x0			0x303			0xff			0xff
DigCalibPattern_L_S5			0x0			0x304			0xff			0xff
DigCalibPattern_L_S6			0x0			0x305			0xff			0xff
DigCalibPattern_L_S7			0x0			0x306			0xff			0xff
DigCalibPattern_L_S8			0x0			0x307			0xff			0xff
DigCalibPattern_L_S9			0x0			0x308			0xff			0xff
DigCalibPattern_L_S10			0x0			0x309			0xff			0xff
DigCalibPattern_L_S11			0x0			0x30a			0xff			0xff
DigCalibPattern_L_S12			0x0			0x30b			0xff			0xff
DigCalibPattern_L_S13			0x0			0x30c			0xff			0xff
DigCalibPattern_L_S14			0x0			0x30d			0xff			0xff
DigCalibPattern_L_S15			0x0			0x30e			0xff			0xff
DigCalibPattern_L_S16			0x0			0x30f			0xff			0xff
DigCalibPattern_L_S17			0x0			0x310			0xff			0xff
DigCalibPattern_L_S18			0x0			0x311			0xff			0xff
DigCalibPattern_L_S19			0x0			0x312			0xff			0xff
DigCalibPattern_L_S20			0x0			0x313			0xff			0xff
DigCalibPattern_L_S21			0x0			0x314			0xff			0xff
DigCalibPattern_L_S22			0x0			0x315			0xff			0xff
DigCalibPattern_L_S23			0x0			0x316			0xff			0xff
DigCalibPattern_L_S24			0x0			0x317			0xff			0xff
DigCalibPattern_L_S25			0x0			0x318			0xff			0xff
DigCalibPattern_L_S26			0x0			0x319			0xff			0xff
DigCalibPattern_L_S27			0x0			0x31a			0xff			0xff
DigCalibPattern_L_S28			0x0			0x31b			0xff			0xff
DigCalibPattern_L_S29			0x0			0x31c			0xff			0xff
DigCalibPattern_L_S30			0x0			0x31d			0xff			0xff
DigCalibPattern_L_S31			0x0			0x31e			0xff			0xff
DigCalibPattern_L_S32			0x0			0x31f			0xff			0xff
DigCalibPattern_L_S33			0x0			0x320			0xff			0xff
DigCalibPattern_L_S34			0x0			0x321			0xff			0xff
DigCalibPattern_L_S35			0x0			0x322			0xff			0xff
DigCalibPattern_L_S36			0x0			0x323			0xff			0xff
DigCalibPattern_L_S37			0x0			0x324			0xff			0xff
DigCalibPattern_L_S38			0x0			0x325			0xff			0xff
DigCalibPattern_L_S39			0x0			0x326			0xff			0xff
DigCalibPattern_L_S40			0x0			0x327			0xff			0xff
DigCalibPattern_L_S41			0x0			0x328			0xff			0xff
DigCalibPattern_L_S42			0x0			0x329			0xff			0xff
DigCalibPattern_L_S43			0x0			0x32a			0xff			0xff
DigCalibPattern_L_S44			0x0			0x32b			0xff			0xff
DigCalibPattern_L_S45			0x0			0x32c			0xff			0xff
DigCalibPattern_L_S46			0x0			0x32d			0xff			0xff
DigCalibPattern_L_S47			0x0			0x32e			0xff			0xff
DigCalibPattern_L_S48			0x0			0x32f			0xff			0xff
DigCalibPattern_L_S49			0x0			0x330			0xff			0xff
DigCalibPattern_L_S50			0x0			0x331			0xff			0xff
DigCalibPattern_L_S51			0x0			0x332			0xff			0xff
DigCalibPattern_L_S52			0x0			0x333			0xff			0xff
DigCalibPattern_L_S53			0x0			0x334			0xff			0xff
DigCalibPattern_L_S54			0x0			0x335			0xff			0xff
DigCalibPattern_L_S55			0x0			0x336			0xff			0xff
DigCalibPattern_L_S56			0x0			0x337			0xff			0xff
DigCalibPattern_L_S57			0x0			0x338			0xff			0xff
DigCalibPattern_L_S58			0x0			0x339			0xff			0xff
DigCalibPattern_L_S59			0x0			0x33a			0xff			0xff
DigCalibPattern_L_S60			0x0			0x33b			0xff			0xff
DigCalibPattern_L_S61			0x0			0x33c			0xff			0xff
DigCalibPattern_L_S62			0x0			0x33d			0xff			0xff
DigCalibPattern_L_S63			0x0			0x33e			0xff			0xff
DigCalibPattern_L_S64			0x0			0x33f			0xff			0xff
DigCalibPattern_L_S65			0x0			0x340			0xff			0xff
DigCalibPattern_L_S66			0x0			0x341			0xff			0xff
DigCalibPattern_L_S67			0x0			0x342			0xff			0xff
DigCalibPattern_L_S68			0x0			0x343			0xff			0xff
DigCalibPattern_L_S69			0x0			0x344			0xff			0xff
DigCalibPattern_L_S70			0x0			0x345			0xff			0xff
DigCalibPattern_L_S71			0x0			0x346			0xff			0xff
DigCalibPattern_L_S72			0x0			0x347			0xff			0xff
DigCalibPattern_L_S73			0x0			0x348			0xff			0xff
DigCalibPattern_L_S74			0x0			0x349			0xff			0xff
DigCalibPattern_L_S75			0x0			0x34a			0xff			0xff
DigCalibPattern_L_S76			0x0			0x34b			0xff			0xff
DigCalibPattern_L_S77			0x0			0x34c			0xff			0xff
DigCalibPattern_L_S78			0x0			0x34d			0xff			0xff
DigCalibPattern_L_S79			0x0			0x34e			0xff			0xff
DigCalibPattern_L_S80			0x0			0x34f			0xff			0xff
DigCalibPattern_L_S81			0x0			0x350			0xff			0xff
DigCalibPattern_L_S82			0x0			0x351			0xff			0xff
DigCalibPattern_L_S83			0x0			0x352			0xff			0xff
DigCalibPattern_L_S84			0x0			0x353			0xff			0xff
DigCalibPattern_L_S85			0x0			0x354			0xff			0xff
DigCalibPattern_L_S86			0x0			0x355			0xff			0xff
DigCalibPattern_L_S87			0x0			0x356			0xff			0xff
DigCalibPattern_L_S88			0x0			0x357			0xff			0xff
DigCalibPattern_L_S89			0x0			0x358			0xff			0xff
DigCalibPattern_L_S90			0x0			0x359			0xff			0xff
DigCalibPattern_L_S91			0x0			0x35a			0xff			0xff
DigCalibPattern_L_S92			0x0			0x35b			0xff			0xff
DigCalibPattern_L_S93			0x0			0x35c			0xff			0xff
DigCalibPattern_L_S94			0x0			0x35d			0xff			0xff
DigCalibPattern_L_S95			0x0			0x35e			0xff			0xff
DigCalibPattern_L_S96			0x0			0x35f			0xff			0xff
DigCalibPattern_L_S97			0x0			0x360			0xff			0xff
DigCalibPattern_L_S98			0x0			0x361			0xff			0xff
DigCalibPattern_L_S99			0x0			0x362			0xff			0xff
DigCalibPattern_L_S100			0x0			0x363			0xff			0xff
DigCalibPattern_L_S101			0x0			0x364			0xff			0xff
DigCalibPattern_L_S102			0x0			0x365			0xff			0xff
DigCalibPattern_L_S103			0x0			0x366			0xff			0xff
DigCalibPattern_L_S104			0x0			0x367			0xff			0xff
DigCalibPattern_L_S105			0x0			0x368			0xff			0xff
DigCalibPattern_L_S106			0x0			0x369			0xff			0xff
DigCalibPattern_L_S107			0x0			0x36a			0xff			0xff
DigCalibPattern_L_S108			0x0			0x36b			0xff			0xff
DigCalibPattern_L_S109			0x0			0x36c			0xff			0xff
DigCalibPattern_L_S110			0x0			0x36d			0xff			0xff
DigCalibPattern_L_S111			0x0			0x36e			0xff			0xff
DigCalibPattern_L_S112			0x0			0x36f			0xff			0xff
DigCalibPattern_L_S113			0x0			0x370			0xff			0xff
DigCalibPattern_L_S114			0x0			0x371			0xff			0xff
DigCalibPattern_L_S115			0x0			0x372			0xff			0xff
DigCalibPattern_L_S116			0x0			0x373			0xff			0xff
DigCalibPattern_L_S117			0x0			0x374			0xff			0xff
DigCalibPattern_L_S118			0x0			0x375			0xff			0xff
DigCalibPattern_L_S119			0x0			0x376			0xff			0xff
DigCalibPattern_L_S120			0x0			0x377			0xff			0xff
